waves/basic_unit1.vcd
$date
  Wed Jun 29 12:14:17 2016
$end
$version
  GHDL v0
$end
$timescale
  1 fs
$end
$var reg 32 ! s_input_alu_1a[31:0] $end
$var reg 32 " s_input_alu_1b[31:0] $end
$var reg 32 # s_input_alu_2a[31:0] $end
$var reg 32 $ s_input_alu_2b[31:0] $end
$var reg 32 % s_input_alu_3a[31:0] $end
$var reg 32 & s_input_alu_3b[31:0] $end
$var reg 4 ' s_opcode_alu_1[3:0] $end
$var reg 4 ( s_opcode_alu_2[3:0] $end
$var reg 4 ) s_opcode_alu_3[3:0] $end
$var reg 32 * s_output_alu_1[31:0] $end
$var reg 32 + s_output_alu_2[31:0] $end
$var reg 32 , s_output_alu_3[31:0] $end
$var reg 1 - s_zero_alu_1 $end
$var reg 1 . s_zero_alu_2 $end
$var reg 1 / s_zero_alu_3 $end
$var reg 32 0 s_input_mul_1a[31:0] $end
$var reg 32 1 s_input_mul_1b[31:0] $end
$var reg 1 2 s_op_mul_1 $end
$var reg 32 3 s_output_mul_hi[31:0] $end
$var reg 32 4 s_output_mul_lo[31:0] $end
$var reg 32 5 s_mem_addr_ls1[31:0] $end
$var reg 32 6 s_offset_ls1[31:0] $end
$var reg 32 7 s_rf_data_ls1[31:0] $end
$var reg 32 8 s_wrdata_ls1[31:0] $end
$var reg 32 9 s_rddata_ls1[31:0] $end
$var reg 32 : s_mem_rddata_ls1[31:0] $end
$var reg 32 ; s_mem_wrdata_ls1[31:0] $end
$var reg 1 < s_clk $end
$var reg 1 = s_rst_ls1 $end
$var reg 1 > s_enable_read_ls1 $end
$var reg 1 ? s_enable_write_ls1 $end
$var reg 1 @ s_rf_wr_ls1 $end
$var reg 1 A s_mem_rd_ls1 $end
$var reg 1 B s_mem_wr_ls1 $end
$scope module basic_unit_0 $end
$var reg 1 C clk $end
$var reg 1 D rst_ls1 $end
$var reg 1 E enable_read_ls1 $end
$var reg 1 F enable_write_ls1 $end
$var reg 32 G input_alu_1a[31:0] $end
$var reg 32 H input_alu_1b[31:0] $end
$var reg 32 I input_alu_2a[31:0] $end
$var reg 32 J input_alu_2b[31:0] $end
$var reg 32 K input_alu_3a[31:0] $end
$var reg 32 L input_alu_3b[31:0] $end
$var reg 4 M opcode_alu_1[3:0] $end
$var reg 4 N opcode_alu_2[3:0] $end
$var reg 4 O opcode_alu_3[3:0] $end
$var reg 32 P output_alu_1[31:0] $end
$var reg 32 Q output_alu_2[31:0] $end
$var reg 32 R output_alu_3[31:0] $end
$var reg 1 S zero_alu_1 $end
$var reg 1 T zero_alu_2 $end
$var reg 1 U zero_alu_3 $end
$var reg 32 V input_mul_1a[31:0] $end
$var reg 32 W input_mul_1b[31:0] $end
$var reg 1 X op_mul_1 $end
$var reg 32 Y output_mul_hi[31:0] $end
$var reg 32 Z output_mul_lo[31:0] $end
$var reg 32 [ offset_ls1[31:0] $end
$var reg 32 \ rf_data_ls1[31:0] $end
$var reg 32 ] wrdata_ls1[31:0] $end
$var reg 32 ^ rddata_ls1[31:0] $end
$var reg 1 _ rf_wr_ls1 $end
$var reg 32 ` mem_addr_ls1[31:0] $end
$var reg 32 a mem_rddata_ls1[31:0] $end
$var reg 32 b mem_wrdata_ls1[31:0] $end
$var reg 1 c mem_rd_ls1 $end
$var reg 1 d mem_wr_ls1 $end
$var reg 32 e s_output_alu_1[31:0] $end
$var reg 32 f s_output_alu_2[31:0] $end
$var reg 32 g s_output_alu_3[31:0] $end
$var reg 32 h s_output_mul_hi[31:0] $end
$var reg 32 i s_output_mul_lo[31:0] $end
$var reg 1 j s_zero_alu_1 $end
$var reg 1 k s_zero_alu_2 $end
$var reg 1 l s_zero_alu_3 $end
$var reg 32 m s_input_alu_1a[31:0] $end
$var reg 32 n s_input_alu_1b[31:0] $end
$var reg 32 o s_input_alu_2a[31:0] $end
$var reg 32 p s_input_alu_2b[31:0] $end
$var reg 32 q s_input_alu_3a[31:0] $end
$var reg 32 r s_input_alu_3b[31:0] $end
$var reg 32 s s_input_mul_1a[31:0] $end
$var reg 32 t s_input_mul_1b[31:0] $end
$var reg 32 u s_mem_addr_ls1[31:0] $end
$var reg 32 v s_offset_ls1[31:0] $end
$var reg 32 w s_rf_data_ls1[31:0] $end
$var reg 32 x s_wrdata_ls1[31:0] $end
$var reg 32 y s_rddata_ls1[31:0] $end
$var reg 32 z s_mem_rddata_ls1[31:0] $end
$var reg 32 { s_mem_wrdata_ls1[31:0] $end
$var reg 1 | s_rf_wr_ls1 $end
$var reg 1 } s_mem_rd_ls1 $end
$var reg 1 !" s_mem_wr_ls1 $end
$scope module alu1 $end
$var reg 32 "" a[31:0] $end
$var reg 32 #" b[31:0] $end
$var reg 4 $" opcode[3:0] $end
$var reg 1 %" zero $end
$var reg 32 &" x[31:0] $end
$var reg 32 '" aux[31:0] $end
$upscope $end
$scope module alu2 $end
$var reg 32 (" a[31:0] $end
$var reg 32 )" b[31:0] $end
$var reg 4 *" opcode[3:0] $end
$var reg 1 +" zero $end
$var reg 32 ," x[31:0] $end
$var reg 32 -" aux[31:0] $end
$upscope $end
$scope module alu3 $end
$var reg 32 ." a[31:0] $end
$var reg 32 /" b[31:0] $end
$var reg 4 0" opcode[3:0] $end
$var reg 1 1" zero $end
$var reg 32 2" x[31:0] $end
$var reg 32 3" aux[31:0] $end
$upscope $end
$scope module mul1 $end
$var reg 32 4" a[31:0] $end
$var reg 32 5" b[31:0] $end
$var reg 1 6" op $end
$var reg 32 7" high[31:0] $end
$var reg 32 8" low[31:0] $end
$var reg 64 9" s_x[63:0] $end
$upscope $end
$scope module ls1 $end
$var reg 1 :" clk $end
$var reg 1 ;" rst $end
$var reg 1 <" enable_read $end
$var reg 1 =" enable_write $end
$var reg 32 >" offset[31:0] $end
$var reg 32 ?" rf_data[31:0] $end
$var reg 32 @" wrdata[31:0] $end
$var reg 32 A" rddata[31:0] $end
$var reg 1 B" rf_wr $end
$var reg 32 C" mem_addr[31:0] $end
$var reg 32 D" mem_rddata[31:0] $end
$var reg 32 E" mem_wrdata[31:0] $end
$var reg 1 F" mem_rd $end
$var reg 1 G" mem_wr $end
$upscope $end
$upscope $end
$enddefinitions $end
#0
b00000000000010000001110110011000 !
b00000101101111111001101011100001 "
b11111111111101111110001001101000 #
b00000101101111111001101011100001 $
b00000000000010000001110110011000 %
b00000101101111111001101011100001 &
b1000 '
b1001 (
b1100 )
b00000101110001111011100001111001 *
b11111010001110000100011110000111 +
b11111010010010001000001010110111 ,
Z-
Z.
1/
b00000000000010000100001111110111 0
b00000000000000000111110110010001 1
12
b00000000000000000000000000000100 3
b00001101110111100001100111100111 4
b00100000000000000000000000001000 5
b00000000000000000000000000001000 6
b00100000000000000000000000000000 7
b00000000000000000000000000000011 8
bUUUUUUUUUUUUUUUUUUUUUUUUUUUUUUUU 9
bUUUUUUUUUUUUUUUUUUUUUUUUUUUUUUUU :
b00000000000000000000000000000011 ;
1<
0=
0>
1?
0@
0A
1B
1C
0D
0E
1F
b00000000000010000001110110011000 G
b00000101101111111001101011100001 H
b11111111111101111110001001101000 I
b00000101101111111001101011100001 J
b00000000000010000001110110011000 K
b00000101101111111001101011100001 L
b1000 M
b1001 N
b1100 O
b00000101110001111011100001111001 P
b11111010001110000100011110000111 Q
b11111010010010001000001010110111 R
ZS
ZT
1U
b00000000000010000100001111110111 V
b00000000000000000111110110010001 W
1X
b00000000000000000000000000000100 Y
b00001101110111100001100111100111 Z
b00000000000000000000000000001000 [
b00100000000000000000000000000000 \
b00000000000000000000000000000011 ]
bUUUUUUUUUUUUUUUUUUUUUUUUUUUUUUUU ^
0_
b00100000000000000000000000001000 `
bUUUUUUUUUUUUUUUUUUUUUUUUUUUUUUUU a
b00000000000000000000000000000011 b
0c
1d
b00000101110001111011100001111001 e
b11111010001110000100011110000111 f
b11111010010010001000001010110111 g
b00000000000000000000000000000100 h
b00001101110111100001100111100111 i
Zj
Zk
1l
b00000000000010000001110110011000 m
b00000101101111111001101011100001 n
b11111111111101111110001001101000 o
b00000101101111111001101011100001 p
b00000000000010000001110110011000 q
b00000101101111111001101011100001 r
b00000000000010000100001111110111 s
b00000000000000000111110110010001 t
b00100000000000000000000000001000 u
b00000000000000000000000000001000 v
b00100000000000000000000000000000 w
b00000000000000000000000000000011 x
bUUUUUUUUUUUUUUUUUUUUUUUUUUUUUUUU y
bUUUUUUUUUUUUUUUUUUUUUUUUUUUUUUUU z
b00000000000000000000000000000011 {
0|
0}
1!"
b00000000000010000001110110011000 ""
b00000101101111111001101011100001 #"
b1000 $"
Z%"
b00000101110001111011100001111001 &"
b00000101110001111011100001111001 '"
b11111111111101111110001001101000 ("
b00000101101111111001101011100001 )"
b1001 *"
Z+"
b11111010001110000100011110000111 ,"
b11111010001110000100011110000111 -"
b00000000000010000001110110011000 ."
b00000101101111111001101011100001 /"
b1100 0"
11"
b11111010010010001000001010110111 2"
b11111010010010001000001010110111 3"
b00000000000010000100001111110111 4"
b00000000000000000111110110010001 5"
16"
b00000000000000000000000000000100 7"
b00001101110111100001100111100111 8"
b0000000000000000000000000000010000001101110111100001100111100111 9"
1:"
0;"
0<"
1="
b00000000000000000000000000001000 >"
b00100000000000000000000000000000 ?"
b00000000000000000000000000000011 @"
bUUUUUUUUUUUUUUUUUUUUUUUUUUUUUUUU A"
0B"
b00100000000000000000000000001000 C"
bUUUUUUUUUUUUUUUUUUUUUUUUUUUUUUUU D"
b00000000000000000000000000000011 E"
0F"
1G"
#5000000
0<
0C
0:"
#10000000
1<
1C
1:"
#15000000
0<
0C
0:"
#20000000
1<
1C
1:"
#25000000
0<
0C
0:"
#30000000
1<
1C
1:"
#35000000
0<
0C
0:"
#40000000
1<
1>
0?
1@
1A
0B
1C
1E
0F
1_
1c
0d
1|
1}
0!"
1:"
1<"
0="
1B"
1F"
0G"
#45000000
0<
0C
0:"
#50000000
b00000000100000000000000000000010 5
b00000000000000000000000000000010 6
b00000000100000000000000000000000 7
b00000000000000000000000000000111 :
1<
1C
b00000000000000000000000000000010 [
b00000000100000000000000000000000 \
b00000000100000000000000000000010 `
b00000000000000000000000000000111 a
b00000000100000000000000000000010 u
b00000000000000000000000000000010 v
b00000000100000000000000000000000 w
b00000000000000000000000000000111 z
1:"
b00000000000000000000000000000010 >"
b00000000100000000000000000000000 ?"
b00000000100000000000000000000010 C"
b00000000000000000000000000000111 D"
#55000000
0<
0C
0:"
#60000000
b00000000000000000000000000000111 9
1<
1C
b00000000000000000000000000000111 ^
b00000000000000000000000000000111 y
1:"
b00000000000000000000000000000111 A"
#65000000
0<
0C
0:"
#70000000
1<
1C
1:"
#75000000
0<
0C
0:"
#80000000
1<
0>
1?
0@
0A
1B
1C
0E
1F
0_
0c
1d
0|
0}
1!"
1:"
0<"
1="
0B"
0F"
1G"
#85000000
0<
0C
0:"
#90000000
1<
1C
1:"
#95000000
0<
0C
0:"
#100000000
b00000000000000000000000000000000 9
1<
1=
1C
1D
b00000000000000000000000000000000 ^
b00000000000000000000000000000000 y
1:"
1;"
b00000000000000000000000000000000 A"
#105000000
0<
0C
0:"
#110000000
1<
1C
1:"
#115000000
0<
0C
0:"
#120000000
1<
1>
0?
1@
1A
0B
1C
1E
0F
1_
1c
0d
1|
1}
0!"
1:"
1<"
0="
1B"
1F"
0G"
#125000000
0<
0C
0:"
#130000000
1<
1C
1:"
#135000000
0<
0C
0:"
#140000000
1<
1C
1:"
#145000000
0<
0C
0:"
#150000000
1<
1C
1:"
#155000000
0<
0C
0:"
#160000000
1<
0>
1?
0@
0A
1B
1C
0E
1F
0_
0c
1d
0|
0}
1!"
1:"
0<"
1="
0B"
0F"
1G"
#165000000
0<
0C
0:"
#170000000
1<
1C
1:"
#175000000
0<
0C
0:"
#180000000
1<
1C
1:"
#185000000
0<
0C
0:"
#190000000
1<
1C
1:"
#195000000
0<
0C
0:"
#200000000
b00000000000000000000000000010111 !
b00000000000000000000000000000001 "
b00000000000000000000000000010111 #
b00000000000000000000000000000001 $
b00000101101111111001101011100001 %
b00000000000010000001110110011000 &
b0100 '
b0101 (
b1000 )
b00000000000000000000000000101110 *
b00000000000000000000000000001011 +
b00000101110001111011100001111001 ,
Z/
b11111111111101111011110000001001 0
b11111111111111111000001001101111 1
02
1<
1>
0?
1@
1A
0B
1C
1E
0F
b00000000000000000000000000010111 G
b00000000000000000000000000000001 H
b00000000000000000000000000010111 I
b00000000000000000000000000000001 J
b00000101101111111001101011100001 K
b00000000000010000001110110011000 L
b0100 M
b0101 N
b1000 O
b00000000000000000000000000101110 P
b00000000000000000000000000001011 Q
b00000101110001111011100001111001 R
ZU
b11111111111101111011110000001001 V
b11111111111111111000001001101111 W
0X
1_
1c
0d
b00000000000000000000000000101110 e
b00000000000000000000000000001011 f
b00000101110001111011100001111001 g
Zl
b00000000000000000000000000010111 m
b00000000000000000000000000000001 n
b00000000000000000000000000010111 o
b00000000000000000000000000000001 p
b00000101101111111001101011100001 q
b00000000000010000001110110011000 r
b11111111111101111011110000001001 s
b11111111111111111000001001101111 t
1|
1}
0!"
b00000000000000000000000000010111 ""
b00000000000000000000000000000001 #"
b0100 $"
b00000000000000000000000000101110 &"
b00000000000000000000000000101110 '"
b00000000000000000000000000010111 ("
b00000000000000000000000000000001 )"
b0101 *"
b00000000000000000000000000001011 ,"
b00000000000000000000000000001011 -"
b00000101101111111001101011100001 ."
b00000000000010000001110110011000 /"
b1000 0"
Z1"
b00000101110001111011100001111001 2"
b00000101110001111011100001111001 3"
b11111111111101111011110000001001 4"
b11111111111111111000001001101111 5"
06"
1:"
1<"
0="
1B"
1F"
0G"
#205000000
0<
0C
0:"
#210000000
1<
1C
1:"
#215000000
0<
0C
0:"
#220000000
1<
1C
1:"
#225000000
0<
0C
0:"
#230000000
1<
1C
1:"
#235000000
0<
0C
0:"
#240000000
1<
1?
1B
1C
1F
1d
1!"
1:"
1="
1G"
#245000000
0<
0C
0:"
#250000000
1<
1C
1:"
#255000000
0<
0C
0:"
#260000000
1<
1C
1:"
#265000000
0<
0C
0:"
#270000000
1<
1C
1:"
#275000000
0<
0C
0:"
#280000000
1<
0>
0?
0@
0A
0B
1C
0E
0F
0_
0c
0d
0|
0}
0!"
1:"
0<"
0="
0B"
0F"
0G"
