waves/basic_unit1.vcd
$date
  Wed Jul  6 18:36:04 2016
$end
$version
  GHDL v0
$end
$timescale
  1 fs
$end
$var reg 32 ! s_input_alu_1a[31:0] $end
$var reg 32 " s_input_alu_1b[31:0] $end
$var reg 32 # s_input_alu_2a[31:0] $end
$var reg 32 $ s_input_alu_2b[31:0] $end
$var reg 32 % s_input_alu_3a[31:0] $end
$var reg 32 & s_input_alu_3b[31:0] $end
$var reg 4 ' s_opcode_alu_1[3:0] $end
$var reg 4 ( s_opcode_alu_2[3:0] $end
$var reg 4 ) s_opcode_alu_3[3:0] $end
$var reg 32 * s_output_alu_1[31:0] $end
$var reg 32 + s_output_alu_2[31:0] $end
$var reg 32 , s_output_alu_3[31:0] $end
$var reg 1 - s_zero_alu_1 $end
$var reg 1 . s_zero_alu_2 $end
$var reg 1 / s_zero_alu_3 $end
$var reg 32 0 s_input_mul_1a[31:0] $end
$var reg 32 1 s_input_mul_1b[31:0] $end
$var reg 1 2 s_op_mul_1 $end
$var reg 32 3 s_output_mul_hi[31:0] $end
$var reg 32 4 s_output_mul_lo[31:0] $end
$var reg 32 5 s_mem_addr_ls1[31:0] $end
$var reg 4 6 s_opcode_ls1[3:0] $end
$var reg 16 7 s_offset_ls1[15:0] $end
$var reg 32 8 s_rf_data_ls1[31:0] $end
$var reg 32 9 s_wrdata_ls1[31:0] $end
$var reg 32 : s_rddata_ls1[31:0] $end
$var reg 32 ; s_mem_rddata_ls1[31:0] $end
$var reg 32 < s_mem_wrdata_ls1[31:0] $end
$var reg 1 = s_clk $end
$var reg 1 > s_rst_ls1 $end
$var reg 1 ? s_enable_read_ls1 $end
$var reg 1 @ s_enable_write_ls1 $end
$var reg 1 A s_rf_wr_ls1 $end
$var reg 1 B s_mem_rd_ls1 $end
$var reg 1 C s_mem_wr_ls1 $end
$scope module basic_unit_0 $end
$var reg 1 D clk $end
$var reg 1 E rst_ls1 $end
$var reg 1 F enable_read_ls1 $end
$var reg 1 G enable_write_ls1 $end
$var reg 32 H input_alu_1a[31:0] $end
$var reg 32 I input_alu_1b[31:0] $end
$var reg 32 J input_alu_2a[31:0] $end
$var reg 32 K input_alu_2b[31:0] $end
$var reg 32 L input_alu_3a[31:0] $end
$var reg 32 M input_alu_3b[31:0] $end
$var reg 4 N opcode_alu_1[3:0] $end
$var reg 4 O opcode_alu_2[3:0] $end
$var reg 4 P opcode_alu_3[3:0] $end
$var reg 32 Q output_alu_1[31:0] $end
$var reg 32 R output_alu_2[31:0] $end
$var reg 32 S output_alu_3[31:0] $end
$var reg 1 T zero_alu_1 $end
$var reg 1 U zero_alu_2 $end
$var reg 1 V zero_alu_3 $end
$var reg 32 W input_mul_1a[31:0] $end
$var reg 32 X input_mul_1b[31:0] $end
$var reg 1 Y op_mul_1 $end
$var reg 32 Z output_mul_hi[31:0] $end
$var reg 32 [ output_mul_lo[31:0] $end
$var reg 4 \ opcode_ls1[3:0] $end
$var reg 16 ] offset_ls1[15:0] $end
$var reg 32 ^ rf_data_ls1[31:0] $end
$var reg 32 _ wrdata_ls1[31:0] $end
$var reg 32 ` rddata_ls1[31:0] $end
$var reg 1 a rf_wr_ls1 $end
$var reg 32 b mem_addr_ls1[31:0] $end
$var reg 32 c mem_rddata_ls1[31:0] $end
$var reg 32 d mem_wrdata_ls1[31:0] $end
$var reg 1 e mem_rd_ls1 $end
$var reg 1 f mem_wr_ls1 $end
$var reg 32 g s_output_alu_1[31:0] $end
$var reg 32 h s_output_alu_2[31:0] $end
$var reg 32 i s_output_alu_3[31:0] $end
$var reg 32 j s_output_mul_hi[31:0] $end
$var reg 32 k s_output_mul_lo[31:0] $end
$var reg 1 l s_zero_alu_1 $end
$var reg 1 m s_zero_alu_2 $end
$var reg 1 n s_zero_alu_3 $end
$var reg 32 o s_input_alu_1a[31:0] $end
$var reg 32 p s_input_alu_1b[31:0] $end
$var reg 32 q s_input_alu_2a[31:0] $end
$var reg 32 r s_input_alu_2b[31:0] $end
$var reg 32 s s_input_alu_3a[31:0] $end
$var reg 32 t s_input_alu_3b[31:0] $end
$var reg 32 u s_input_mul_1a[31:0] $end
$var reg 32 v s_input_mul_1b[31:0] $end
$var reg 32 w s_mem_addr_ls1[31:0] $end
$var reg 4 x s_opcode_ls1[3:0] $end
$var reg 16 y s_offset_ls1[15:0] $end
$var reg 32 z s_rf_data_ls1[31:0] $end
$var reg 32 { s_wrdata_ls1[31:0] $end
$var reg 32 | s_rddata_ls1[31:0] $end
$var reg 32 } s_mem_rddata_ls1[31:0] $end
$var reg 32 !" s_mem_wrdata_ls1[31:0] $end
$var reg 1 "" s_rf_wr_ls1 $end
$var reg 1 #" s_mem_rd_ls1 $end
$var reg 1 $" s_mem_wr_ls1 $end
$scope module alu1 $end
$var reg 32 %" a[31:0] $end
$var reg 32 &" b[31:0] $end
$var reg 4 '" opcode[3:0] $end
$var reg 1 (" zero $end
$var reg 32 )" x[31:0] $end
$var reg 32 *" aux[31:0] $end
$upscope $end
$scope module alu2 $end
$var reg 32 +" a[31:0] $end
$var reg 32 ," b[31:0] $end
$var reg 4 -" opcode[3:0] $end
$var reg 1 ." zero $end
$var reg 32 /" x[31:0] $end
$var reg 32 0" aux[31:0] $end
$upscope $end
$scope module alu3 $end
$var reg 32 1" a[31:0] $end
$var reg 32 2" b[31:0] $end
$var reg 4 3" opcode[3:0] $end
$var reg 1 4" zero $end
$var reg 32 5" x[31:0] $end
$var reg 32 6" aux[31:0] $end
$upscope $end
$scope module mul1 $end
$var reg 32 7" a[31:0] $end
$var reg 32 8" b[31:0] $end
$var reg 1 9" op $end
$var reg 32 :" high[31:0] $end
$var reg 32 ;" low[31:0] $end
$var reg 64 <" s_x[63:0] $end
$upscope $end
$scope module ls1 $end
$var reg 1 =" clk $end
$var reg 1 >" rst $end
$var reg 1 ?" enable_read $end
$var reg 1 @" enable_write $end
$var reg 4 A" opcode[3:0] $end
$var reg 16 B" offset[15:0] $end
$var reg 32 C" rf_data[31:0] $end
$var reg 32 D" wrdata[31:0] $end
$var reg 32 E" rddata[31:0] $end
$var reg 1 F" rf_wr $end
$var reg 32 G" mem_addr[31:0] $end
$var reg 32 H" mem_rddata[31:0] $end
$var reg 32 I" mem_wrdata[31:0] $end
$var reg 1 J" mem_rd $end
$var reg 1 K" mem_wr $end
$upscope $end
$upscope $end
$enddefinitions $end
#0
b00000000000010000001110110011000 !
b00000101101111111001101011100001 "
b11111111111101111110001001101000 #
b00000101101111111001101011100001 $
b00000000000010000001110110011000 %
b00000101101111111001101011100001 &
b1000 '
b1001 (
b1100 )
b00000101110001111011100001111001 *
b11111010001110000100011110000111 +
b11111010010010001000001010110111 ,
Z-
Z.
1/
b00000000000010000100001111110111 0
b00000000000000000111110110010001 1
12
b00000000000000000000000000000100 3
b00001101110111100001100111100111 4
b00100000000000000000000000001000 5
b0000 6
b0000000000001000 7
b00100000000000000000000000000000 8
bUUUUUUUUUUUUUUUUUUUUUUUUUUUUUUUU 9
bUUUUUUUUUUUUUUUUUUUUUUUUUUUUUUUU :
b00000000000000000000000000000111 ;
b00000000000000000000000000000000 <
1=
0>
1?
0@
1A
1B
0C
1D
0E
1F
0G
b00000000000010000001110110011000 H
b00000101101111111001101011100001 I
b11111111111101111110001001101000 J
b00000101101111111001101011100001 K
b00000000000010000001110110011000 L
b00000101101111111001101011100001 M
b1000 N
b1001 O
b1100 P
b00000101110001111011100001111001 Q
b11111010001110000100011110000111 R
b11111010010010001000001010110111 S
ZT
ZU
1V
b00000000000010000100001111110111 W
b00000000000000000111110110010001 X
1Y
b00000000000000000000000000000100 Z
b00001101110111100001100111100111 [
b0000 \
b0000000000001000 ]
b00100000000000000000000000000000 ^
bUUUUUUUUUUUUUUUUUUUUUUUUUUUUUUUU _
bUUUUUUUUUUUUUUUUUUUUUUUUUUUUUUUU `
1a
b00100000000000000000000000001000 b
b00000000000000000000000000000111 c
b00000000000000000000000000000000 d
1e
0f
b00000101110001111011100001111001 g
b11111010001110000100011110000111 h
b11111010010010001000001010110111 i
b00000000000000000000000000000100 j
b00001101110111100001100111100111 k
Zl
Zm
1n
b00000000000010000001110110011000 o
b00000101101111111001101011100001 p
b11111111111101111110001001101000 q
b00000101101111111001101011100001 r
b00000000000010000001110110011000 s
b00000101101111111001101011100001 t
b00000000000010000100001111110111 u
b00000000000000000111110110010001 v
b00100000000000000000000000001000 w
b0000 x
b0000000000001000 y
b00100000000000000000000000000000 z
bUUUUUUUUUUUUUUUUUUUUUUUUUUUUUUUU {
bUUUUUUUUUUUUUUUUUUUUUUUUUUUUUUUU |
b00000000000000000000000000000111 }
b00000000000000000000000000000000 !"
1""
1#"
0$"
b00000000000010000001110110011000 %"
b00000101101111111001101011100001 &"
b1000 '"
Z("
b00000101110001111011100001111001 )"
b00000101110001111011100001111001 *"
b11111111111101111110001001101000 +"
b00000101101111111001101011100001 ,"
b1001 -"
Z."
b11111010001110000100011110000111 /"
b11111010001110000100011110000111 0"
b00000000000010000001110110011000 1"
b00000101101111111001101011100001 2"
b1100 3"
14"
b11111010010010001000001010110111 5"
b11111010010010001000001010110111 6"
b00000000000010000100001111110111 7"
b00000000000000000111110110010001 8"
19"
b00000000000000000000000000000100 :"
b00001101110111100001100111100111 ;"
b0000000000000000000000000000010000001101110111100001100111100111 <"
1="
0>"
1?"
0@"
b0000 A"
b0000000000001000 B"
b00100000000000000000000000000000 C"
bUUUUUUUUUUUUUUUUUUUUUUUUUUUUUUUU D"
bUUUUUUUUUUUUUUUUUUUUUUUUUUUUUUUU E"
1F"
b00100000000000000000000000001000 G"
b00000000000000000000000000000111 H"
b00000000000000000000000000000000 I"
1J"
0K"
#5000000
0=
0D
0="
#10000000
b0001 6
b00000000000000000000000000000111 :
b00000000000000000000000000000011 ;
1=
1D
b0001 \
b00000000000000000000000000000111 `
b00000000000000000000000000000011 c
b0001 x
b00000000000000000000000000000111 |
b00000000000000000000000000000011 }
1="
b0001 A"
b00000000000000000000000000000111 E"
b00000000000000000000000000000011 H"
#15000000
0=
0D
0="
#20000000
b00000000000000000000000000000011 :
b00000000000000001000000000000011 ;
1=
1D
b00000000000000000000000000000011 `
b00000000000000001000000000000011 c
b00000000000000000000000000000011 |
b00000000000000001000000000000011 }
1="
b00000000000000000000000000000011 E"
b00000000000000001000000000000011 H"
#25000000
0=
0D
0="
#30000000
b0010 6
b11111111111111111000000000000011 :
1=
1D
b0010 \
b11111111111111111000000000000011 `
b0010 x
b11111111111111111000000000000011 |
1="
b0010 A"
b11111111111111111000000000000011 E"
#35000000
0=
0D
0="
#40000000
b0011 6
b00000000000000001000000000000011 :
b00000000000000000000000000000011 ;
1=
1D
b0011 \
b00000000000000001000000000000011 `
b00000000000000000000000000000011 c
b0011 x
b00000000000000001000000000000011 |
b00000000000000000000000000000011 }
1="
b0011 A"
b00000000000000001000000000000011 E"
b00000000000000000000000000000011 H"
#45000000
0=
0D
0="
#50000000
b00000000000000000000000000000011 :
b00000000000000000000000010000011 ;
1=
1D
b00000000000000000000000000000011 `
b00000000000000000000000010000011 c
b00000000000000000000000000000011 |
b00000000000000000000000010000011 }
1="
b00000000000000000000000000000011 E"
b00000000000000000000000010000011 H"
#55000000
0=
0D
0="
#60000000
b0100 6
b11111111111111111111111110000011 :
1=
1D
b0100 \
b11111111111111111111111110000011 `
b0100 x
b11111111111111111111111110000011 |
1="
b0100 A"
b11111111111111111111111110000011 E"
#65000000
0=
0D
0="
#70000000
b00000000000000000000000010000011 :
1=
1D
b00000000000000000000000010000011 `
b00000000000000000000000010000011 |
1="
b00000000000000000000000010000011 E"
#75000000
0=
0D
0="
#80000000
b00000000100000000000000000000010 5
b0101 6
b0000000000000010 7
b00000000100000000000000000000000 8
b01000000000000000000000000000111 9
b01000000000000000000000000000111 <
1=
0?
1@
0A
0B
1C
1D
0F
1G
b0101 \
b0000000000000010 ]
b00000000100000000000000000000000 ^
b01000000000000000000000000000111 _
0a
b00000000100000000000000000000010 b
b01000000000000000000000000000111 d
0e
1f
b00000000100000000000000000000010 w
b0101 x
b0000000000000010 y
b00000000100000000000000000000000 z
b01000000000000000000000000000111 {
b01000000000000000000000000000111 !"
0""
0#"
1$"
1="
0?"
1@"
b0101 A"
b0000000000000010 B"
b00000000100000000000000000000000 C"
b01000000000000000000000000000111 D"
0F"
b00000000100000000000000000000010 G"
b01000000000000000000000000000111 I"
0J"
1K"
#85000000
0=
0D
0="
#90000000
b0110 6
b00000000000000011000000000000111 9
b00000000000000001000000000000111 <
1=
1D
b0110 \
b00000000000000011000000000000111 _
b00000000000000001000000000000111 d
b0110 x
b00000000000000011000000000000111 {
b00000000000000001000000000000111 !"
1="
b0110 A"
b00000000000000011000000000000111 D"
b00000000000000001000000000000111 I"
#95000000
0=
0D
0="
#100000000
b0111 6
b00000000000000000000000110000111 9
b00000000000000000000000010000111 <
1=
1D
b0111 \
b00000000000000000000000110000111 _
b00000000000000000000000010000111 d
b0111 x
b00000000000000000000000110000111 {
b00000000000000000000000010000111 !"
1="
b0111 A"
b00000000000000000000000110000111 D"
b00000000000000000000000010000111 I"
#105000000
0=
0D
0="
#110000000
b00000000000000000000000000000000 :
1=
1>
1D
1E
b00000000000000000000000000000000 `
b00000000000000000000000000000000 |
1="
1>"
b00000000000000000000000000000000 E"
#115000000
0=
0D
0="
#120000000
1=
1?
0@
1A
1B
0C
1D
1F
0G
1a
1e
0f
1""
1#"
0$"
1="
1?"
0@"
1F"
1J"
0K"
#125000000
0=
0D
0="
#130000000
1=
1D
1="
#135000000
0=
0D
0="
#140000000
1=
1D
1="
#145000000
0=
0D
0="
#150000000
1=
1D
1="
#155000000
0=
0D
0="
#160000000
1=
1D
1="
#165000000
0=
0D
0="
#170000000
1=
1D
1="
#175000000
0=
0D
0="
#180000000
1=
1D
1="
#185000000
0=
0D
0="
#190000000
1=
1D
1="
#195000000
0=
0D
0="
#200000000
b00000000000000000000000000010111 !
b00000000000000000000000000000001 "
b00000000000000000000000000010111 #
b00000000000000000000000000000001 $
b00000101101111111001101011100001 %
b00000000000010000001110110011000 &
b0100 '
b0101 (
b1000 )
b00000000000000000000000000101110 *
b00000000000000000000000000001011 +
b00000101110001111011100001111001 ,
Z/
b11111111111101111011110000001001 0
b11111111111111111000001001101111 1
02
1=
0?
1@
0A
0B
1C
1D
0F
1G
b00000000000000000000000000010111 H
b00000000000000000000000000000001 I
b00000000000000000000000000010111 J
b00000000000000000000000000000001 K
b00000101101111111001101011100001 L
b00000000000010000001110110011000 M
b0100 N
b0101 O
b1000 P
b00000000000000000000000000101110 Q
b00000000000000000000000000001011 R
b00000101110001111011100001111001 S
ZV
b11111111111101111011110000001001 W
b11111111111111111000001001101111 X
0Y
0a
0e
1f
b00000000000000000000000000101110 g
b00000000000000000000000000001011 h
b00000101110001111011100001111001 i
Zn
b00000000000000000000000000010111 o
b00000000000000000000000000000001 p
b00000000000000000000000000010111 q
b00000000000000000000000000000001 r
b00000101101111111001101011100001 s
b00000000000010000001110110011000 t
b11111111111101111011110000001001 u
b11111111111111111000001001101111 v
0""
0#"
1$"
b00000000000000000000000000010111 %"
b00000000000000000000000000000001 &"
b0100 '"
b00000000000000000000000000101110 )"
b00000000000000000000000000101110 *"
b00000000000000000000000000010111 +"
b00000000000000000000000000000001 ,"
b0101 -"
b00000000000000000000000000001011 /"
b00000000000000000000000000001011 0"
b00000101101111111001101011100001 1"
b00000000000010000001110110011000 2"
b1000 3"
Z4"
b00000101110001111011100001111001 5"
b00000101110001111011100001111001 6"
b11111111111101111011110000001001 7"
b11111111111111111000001001101111 8"
09"
1="
0?"
1@"
0F"
0J"
1K"
