waves/load_store1.vcd
$date
  Wed Jun 29 01:31:42 2016
$end
$version
  GHDL v0
$end
$timescale
  1 fs
$end
$var reg 1 ! s_clk $end
$var reg 1 " s_rst $end
$var reg 1 # s_enable_read $end
$var reg 1 $ s_enable_write $end
$var reg 32 % s_rf_data[31:0] $end
$var reg 32 & s_wrdata[31:0] $end
$var reg 32 ' s_rddata[31:0] $end
$var reg 1 ( s_rf_wr $end
$var reg 32 ) s_offset[31:0] $end
$var reg 1 * s_mem_rd $end
$var reg 1 + s_mem_wr $end
$var reg 32 , s_mem_addr[31:0] $end
$var reg 32 - s_mem_rddata[31:0] $end
$var reg 32 . s_mem_wrdata[31:0] $end
$scope module load_store_0 $end
$var reg 1 / clk $end
$var reg 1 0 rst $end
$var reg 1 1 enable_read $end
$var reg 1 2 enable_write $end
$var reg 32 3 offset[31:0] $end
$var reg 32 4 rf_data[31:0] $end
$var reg 32 5 wrdata[31:0] $end
$var reg 32 6 rddata[31:0] $end
$var reg 1 7 rf_wr $end
$var reg 32 8 mem_addr[31:0] $end
$var reg 32 9 mem_rddata[31:0] $end
$var reg 32 : mem_wrdata[31:0] $end
$var reg 1 ; mem_rd $end
$var reg 1 < mem_wr $end
$upscope $end
$enddefinitions $end
#0
1!
0"
0#
1$
b00100000000000000000000000000000 %
b00000000000000000000000000000011 &
bUUUUUUUUUUUUUUUUUUUUUUUUUUUUUUUU '
0(
b00000000000000000000000000001000 )
0*
1+
b00100000000000000000000000001000 ,
bUUUUUUUUUUUUUUUUUUUUUUUUUUUUUUUU -
b00000000000000000000000000000011 .
1/
00
01
12
b00000000000000000000000000001000 3
b00100000000000000000000000000000 4
b00000000000000000000000000000011 5
bUUUUUUUUUUUUUUUUUUUUUUUUUUUUUUUU 6
07
b00100000000000000000000000001000 8
bUUUUUUUUUUUUUUUUUUUUUUUUUUUUUUUU 9
b00000000000000000000000000000011 :
0;
1<
#5000000
0!
0/
#10000000
1!
1/
#15000000
0!
0/
#20000000
1!
1/
#25000000
0!
0/
#30000000
1!
1/
#35000000
0!
0/
#40000000
1!
1#
0$
1(
1*
0+
1/
11
02
17
1;
0<
#45000000
0!
0/
#50000000
1!
b00000000100000000000000000000000 %
b00000000000000000000000000000111 '
b00000000000000000000000000000010 )
b00000000100000000000000000000010 ,
b00000000000000000000000000000111 -
1/
b00000000000000000000000000000010 3
b00000000100000000000000000000000 4
b00000000000000000000000000000111 6
b00000000100000000000000000000010 8
b00000000000000000000000000000111 9
#55000000
0!
0/
#60000000
1!
1/
#65000000
0!
0/
#70000000
1!
1/
#75000000
0!
0/
#80000000
1!
0#
1$
0(
0*
1+
1/
01
12
07
0;
1<
#85000000
0!
0/
#90000000
1!
1/
#95000000
0!
0/
#100000000
1!
1"
b00000000000000000000000000000000 '
1/
10
b00000000000000000000000000000000 6
#105000000
0!
0/
#110000000
1!
1/
#115000000
0!
0/
#120000000
1!
1#
0$
1(
1*
0+
1/
11
02
17
1;
0<
#125000000
0!
0/
#130000000
1!
1/
#135000000
0!
0/
#140000000
1!
1/
#145000000
0!
0/
#150000000
1!
1/
#155000000
0!
0/
#160000000
1!
0#
1$
0(
0*
1+
1/
01
12
07
0;
1<
#165000000
0!
0/
#170000000
1!
1/
#175000000
0!
0/
#180000000
1!
1/
#185000000
0!
0/
#190000000
1!
1/
#195000000
0!
0/
#200000000
1!
1#
0$
1(
1*
0+
1/
11
02
17
1;
0<
#205000000
0!
0/
#210000000
1!
1/
#215000000
0!
0/
#220000000
1!
1/
#225000000
0!
0/
#230000000
1!
1/
#235000000
0!
0/
#240000000
1!
1$
1+
1/
12
1<
#245000000
0!
0/
#250000000
1!
1/
#255000000
0!
0/
#260000000
1!
1/
#265000000
0!
0/
#270000000
1!
1/
#275000000
0!
0/
#280000000
1!
0#
0$
0(
0*
0+
1/
01
02
07
0;
0<
