waves/load_store1.vcd
$date
  Sun Jul 10 13:58:33 2016
$end
$version
  GHDL v0
$end
$timescale
  1 fs
$end
$var reg 1 ! s_clk $end
$var reg 1 " s_rst $end
$var reg 1 # s_enable_read $end
$var reg 1 $ s_enable_write $end
$var reg 32 % s_rf_data[31:0] $end
$var reg 32 & s_wrdata[31:0] $end
$var reg 32 ' s_rddata[31:0] $end
$var reg 1 ( s_rf_wr $end
$var reg 32 ) s_offset[31:0] $end
$var reg 1 * s_mem_rd $end
$var reg 1 + s_mem_wr $end
$var reg 32 , s_mem_addr[31:0] $end
$var reg 32 - s_mem_rddata[31:0] $end
$var reg 32 . s_mem_wrdata[31:0] $end
$var reg 4 / s_opcode[3:0] $end
$scope module load_store_0 $end
$var reg 1 0 clk $end
$var reg 1 1 rst $end
$var reg 1 2 enable_read $end
$var reg 1 3 enable_write $end
$var reg 4 4 opcode[3:0] $end
$var reg 32 5 offset[31:0] $end
$var reg 32 6 rf_data[31:0] $end
$var reg 32 7 wrdata[31:0] $end
$var reg 32 8 rddata[31:0] $end
$var reg 1 9 rf_wr $end
$var reg 32 : mem_addr[31:0] $end
$var reg 32 ; mem_rddata[31:0] $end
$var reg 32 < mem_wrdata[31:0] $end
$var reg 1 = mem_rd $end
$var reg 1 > mem_wr $end
$upscope $end
$enddefinitions $end
#0
0!
0"
1#
0$
b00100000000000000000000000000000 %
bUUUUUUUUUUUUUUUUUUUUUUUUUUUUUUUU &
bUUUUUUUUUUUUUUUUUUUUUUUUUUUUUUUU '
1(
b00000000000000000000000000001000 )
1*
0+
b00100000000000000000000000001000 ,
b00000000000000000000000000000111 -
b00000000000000000000000000000000 .
b0000 /
00
01
12
03
b0000 4
b00000000000000000000000000001000 5
b00100000000000000000000000000000 6
bUUUUUUUUUUUUUUUUUUUUUUUUUUUUUUUU 7
bUUUUUUUUUUUUUUUUUUUUUUUUUUUUUUUU 8
19
b00100000000000000000000000001000 :
b00000000000000000000000000000111 ;
b00000000000000000000000000000000 <
1=
0>
#5000000
1!
b00000000000000000000000000000111 '
10
b00000000000000000000000000000111 8
#10000000
0!
b00000000000000000000000000000011 -
b0001 /
00
b0001 4
b00000000000000000000000000000011 ;
#15000000
1!
b00000000000000000000000000000011 '
10
b00000000000000000000000000000011 8
#20000000
0!
b00000000000000001000000000000011 -
00
b00000000000000001000000000000011 ;
#25000000
1!
b11111111111111111000000000000011 '
10
b11111111111111111000000000000011 8
#30000000
0!
b0010 /
00
b0010 4
#35000000
1!
b00000000000000001000000000000011 '
10
b00000000000000001000000000000011 8
#40000000
0!
b00000000000000000000000000000011 -
b0011 /
00
b0011 4
b00000000000000000000000000000011 ;
#45000000
1!
b00000000000000000000000000000011 '
10
b00000000000000000000000000000011 8
#50000000
0!
b00000000000000000000000010000011 -
00
b00000000000000000000000010000011 ;
#55000000
1!
b11111111111111111111111110000011 '
10
b11111111111111111111111110000011 8
#60000000
0!
b0100 /
00
b0100 4
#65000000
1!
b00000000000000000000000010000011 '
10
b00000000000000000000000010000011 8
#70000000
0!
00
#75000000
1!
10
#80000000
0!
0#
1$
b00000000100000000000000000000000 %
b01000000000000000000000000000111 &
0(
b00000000000000000000000000000010 )
0*
1+
b00000000100000000000000000000010 ,
b01000000000000000000000000000111 .
b0101 /
00
02
13
b0101 4
b00000000000000000000000000000010 5
b00000000100000000000000000000000 6
b01000000000000000000000000000111 7
09
b00000000100000000000000000000010 :
b01000000000000000000000000000111 <
0=
1>
#85000000
1!
10
#90000000
0!
b00000000000000011000000000000111 &
b00000000000000001000000000000111 .
b0110 /
00
b0110 4
b00000000000000011000000000000111 7
b00000000000000001000000000000111 <
#95000000
1!
10
#100000000
0!
b00000000000000000000000110000111 &
b00000000000000000000000010000111 .
b0111 /
00
b0111 4
b00000000000000000000000110000111 7
b00000000000000000000000010000111 <
#105000000
1!
10
#110000000
0!
1"
b00000000000000000000000000000000 '
00
11
b00000000000000000000000000000000 8
#115000000
1!
10
#120000000
0!
1#
0$
1(
1*
0+
00
12
03
19
1=
0>
#125000000
1!
10
#130000000
0!
00
#135000000
1!
10
#140000000
0!
00
#145000000
1!
10
#150000000
0!
00
#155000000
1!
10
#160000000
0!
00
#165000000
1!
10
#170000000
0!
00
#175000000
1!
10
#180000000
0!
00
#185000000
1!
10
#190000000
0!
00
#195000000
1!
10
#200000000
0!
0#
1$
0(
0*
1+
00
02
13
09
0=
1>
