waves/reg1.vcd
$date
  Sun Jun  5 15:50:02 2016
$end
$version
  GHDL v0
$end
$timescale
  1 fs
$end
$var reg 32 ! s_reg_input[31:0] $end
$var reg 32 " s_reg_output[31:0] $end
$var reg 1 # s_enable_read $end
$var reg 1 $ s_enable_write $end
$var reg 1 % s_clk $end
$scope module reg_0 $end
$var reg 1 & clk $end
$var reg 1 ' enable_read $end
$var reg 1 ( enable_write $end
$var reg 32 ) reg_input[31:0] $end
$var reg 32 * reg_output[31:0] $end
$var reg 32 + aux[31:0] $end
$upscope $end
$enddefinitions $end
#0
b00100000000000000000000000000000 !
bUUUUUUUUUUUUUUUUUUUUUUUUUUUUUUUU "
0#
1$
1%
1&
0'
1(
b00100000000000000000000000000000 )
bUUUUUUUUUUUUUUUUUUUUUUUUUUUUUUUU *
b00100000000000000000000000000000 +
#5000000
0%
0&
#10000000
1%
1&
#15000000
0%
0&
#20000000
1%
1&
#25000000
0%
0&
#30000000
1%
1&
#35000000
0%
0&
#40000000
b00100000000000000000000000000000 "
1#
0$
1%
1&
1'
0(
b00100000000000000000000000000000 *
#45000000
0%
0&
#50000000
b00000000000000000000000000000010 !
1%
1&
b00000000000000000000000000000010 )
#55000000
0%
0&
#60000000
1%
1&
#65000000
0%
0&
#70000000
1%
1&
#75000000
0%
0&
#80000000
0#
1$
1%
1&
0'
1(
b00000000000000000000000000000010 +
#85000000
0%
0&
#90000000
1%
1&
#95000000
0%
0&
#100000000
b00010000000000000000000000000000 !
1%
1&
b00010000000000000000000000000000 )
b00010000000000000000000000000000 +
#105000000
0%
0&
#110000000
1%
1&
#115000000
0%
0&
#120000000
b00010000000000000000000000000000 "
1#
0$
1%
1&
1'
0(
b00010000000000000000000000000000 *
#125000000
0%
0&
#130000000
1%
1&
#135000000
0%
0&
#140000000
1%
1&
#145000000
0%
0&
#150000000
b00000000000000000000000000000100 !
1%
1&
b00000000000000000000000000000100 )
#155000000
0%
0&
#160000000
0#
1$
1%
1&
0'
1(
b00000000000000000000000000000100 +
#165000000
0%
0&
#170000000
1%
1&
#175000000
0%
0&
#180000000
1%
1&
#185000000
0%
0&
#190000000
1%
1&
#195000000
0%
0&
#200000000
b00000000000000000000000000000100 "
1#
0$
1%
1&
1'
0(
b00000000000000000000000000000100 *
#205000000
0%
0&
#210000000
1%
1&
#215000000
0%
0&
#220000000
1%
1&
#225000000
0%
0&
#230000000
1%
1&
#235000000
0%
0&
#240000000
b00000000000000000100000000000000 !
1$
1%
1&
1(
b00000000000000000100000000000000 )
b00000000000000000100000000000000 +
#245000000
0%
0&
#250000000
b00000000000000000100000000000000 "
1%
1&
b00000000000000000100000000000000 *
#255000000
0%
0&
#260000000
1%
1&
#265000000
0%
0&
#270000000
1%
1&
#275000000
0%
0&
#280000000
0#
0$
1%
1&
0'
0(
