waves/reg1.vcd
$date
  Wed Jul  6 18:58:18 2016
$end
$version
  GHDL v0
$end
$timescale
  1 fs
$end
$var reg 32 ! s_reg_input[31:0] $end
$var reg 32 " s_reg_output[31:0] $end
$var reg 1 # s_enable_read $end
$var reg 1 $ s_enable_write $end
$var reg 1 % s_clk $end
$scope module reg_0 $end
$var reg 1 & clk $end
$var reg 1 ' enable_read $end
$var reg 1 ( enable_write $end
$var reg 32 ) reg_input[31:0] $end
$var reg 32 * reg_output[31:0] $end
$var reg 32 + aux[31:0] $end
$upscope $end
$enddefinitions $end
#0
b00100000000000000000000000000000 !
bUUUUUUUUUUUUUUUUUUUUUUUUUUUUUUUU "
0#
1$
0%
0&
0'
1(
b00100000000000000000000000000000 )
bUUUUUUUUUUUUUUUUUUUUUUUUUUUUUUUU *
bUUUUUUUUUUUUUUUUUUUUUUUUUUUUUUUU +
#5000000
1%
1&
b00100000000000000000000000000000 +
#10000000
0%
0&
#15000000
1%
1&
#20000000
0%
0&
#25000000
1%
1&
#30000000
0%
0&
#35000000
1%
1&
#40000000
1#
0$
0%
0&
1'
0(
#45000000
b00100000000000000000000000000000 "
1%
1&
b00100000000000000000000000000000 *
#50000000
b00000000000000000000000000000010 !
0%
0&
b00000000000000000000000000000010 )
#55000000
1%
1&
#60000000
0%
0&
#65000000
1%
1&
#70000000
0%
0&
#75000000
1%
1&
#80000000
0#
1$
0%
0&
0'
1(
#85000000
1%
1&
b00000000000000000000000000000010 +
#90000000
0%
0&
#95000000
1%
1&
#100000000
b00010000000000000000000000000000 !
0%
0&
b00010000000000000000000000000000 )
#105000000
1%
1&
b00010000000000000000000000000000 +
#110000000
0%
0&
#115000000
1%
1&
#120000000
1#
0$
0%
0&
1'
0(
#125000000
b00010000000000000000000000000000 "
1%
1&
b00010000000000000000000000000000 *
#130000000
0%
0&
#135000000
1%
1&
#140000000
0%
0&
#145000000
1%
1&
#150000000
b00000000000000000000000000000100 !
0%
0&
b00000000000000000000000000000100 )
#155000000
1%
1&
#160000000
0#
1$
0%
0&
0'
1(
#165000000
1%
1&
b00000000000000000000000000000100 +
#170000000
0%
0&
#175000000
1%
1&
#180000000
0%
0&
#185000000
1%
1&
#190000000
0%
0&
#195000000
1%
1&
#200000000
1#
0$
0%
0&
1'
0(
#205000000
b00000000000000000000000000000100 "
1%
1&
b00000000000000000000000000000100 *
#210000000
0%
0&
#215000000
1%
1&
#220000000
0%
0&
#225000000
1%
1&
#230000000
0%
0&
#235000000
1%
1&
#240000000
b00000000000000000100000000000000 !
1$
0%
0&
1(
b00000000000000000100000000000000 )
#245000000
1%
1&
b00000000000000000100000000000000 +
#250000000
0%
0&
#255000000
b00000000000000000100000000000000 "
1%
1&
b00000000000000000100000000000000 *
#260000000
0%
0&
#265000000
1%
1&
#270000000
0%
0&
#275000000
1%
1&
#280000000
0#
0$
0%
0&
0'
0(
