waves/register_file1.vcd
$date
  Sat May 21 13:15:04 2016
$end
$version
  GHDL v0
$end
$timescale
  1 fs
$end
$var reg 1 ! s_clk $end
$var reg 1 " s_enable_read $end
$var reg 1 # s_enable_write $end
$var reg 6 $ s_write_address1[5:0] $end
$var reg 6 % s_write_address2[5:0] $end
$var reg 6 & s_write_address3[5:0] $end
$var reg 6 ' s_write_address4[5:0] $end
$var reg 6 ( s_write_address5[5:0] $end
$var reg 6 ) s_write_address6[5:0] $end
$var reg 6 * s_write_address7[5:0] $end
$var reg 6 + s_write_address8[5:0] $end
$var reg 6 , s_write_address9[5:0] $end
$var reg 6 - s_write_address10[5:0] $end
$var reg 6 . s_write_address11[5:0] $end
$var reg 6 / s_write_address12[5:0] $end
$var reg 6 0 s_write_address13[5:0] $end
$var reg 6 1 s_write_address14[5:0] $end
$var reg 6 2 s_write_address15[5:0] $end
$var reg 6 3 s_write_address16[5:0] $end
$var reg 6 4 s_write_address17[5:0] $end
$var reg 6 5 s_write_address18[5:0] $end
$var reg 6 6 s_write_address19[5:0] $end
$var reg 6 7 s_write_address20[5:0] $end
$var reg 6 8 s_write_address21[5:0] $end
$var reg 6 9 s_write_address22[5:0] $end
$var reg 6 : s_write_address23[5:0] $end
$var reg 6 ; s_write_address24[5:0] $end
$var reg 6 < s_write_address25[5:0] $end
$var reg 6 = s_write_address26[5:0] $end
$var reg 6 > s_write_address27[5:0] $end
$var reg 6 ? s_write_address28[5:0] $end
$var reg 6 @ s_write_address29[5:0] $end
$var reg 6 A s_write_address30[5:0] $end
$var reg 6 B s_write_address31[5:0] $end
$var reg 6 C s_write_address32[5:0] $end
$var reg 6 D s_write_address33[5:0] $end
$var reg 6 E s_write_address34[5:0] $end
$var reg 32 F s_input1[31:0] $end
$var reg 32 G s_input2[31:0] $end
$var reg 32 H s_input3[31:0] $end
$var reg 32 I s_input4[31:0] $end
$var reg 32 J s_input5[31:0] $end
$var reg 32 K s_input6[31:0] $end
$var reg 32 L s_input7[31:0] $end
$var reg 32 M s_input8[31:0] $end
$var reg 32 N s_input9[31:0] $end
$var reg 32 O s_input10[31:0] $end
$var reg 32 P s_input11[31:0] $end
$var reg 32 Q s_input12[31:0] $end
$var reg 32 R s_input13[31:0] $end
$var reg 32 S s_input14[31:0] $end
$var reg 32 T s_input15[31:0] $end
$var reg 32 U s_input16[31:0] $end
$var reg 32 V s_input17[31:0] $end
$var reg 32 W s_input18[31:0] $end
$var reg 32 X s_input19[31:0] $end
$var reg 32 Y s_input20[31:0] $end
$var reg 32 Z s_input21[31:0] $end
$var reg 32 [ s_input22[31:0] $end
$var reg 32 \ s_input23[31:0] $end
$var reg 32 ] s_input24[31:0] $end
$var reg 32 ^ s_input25[31:0] $end
$var reg 32 _ s_input26[31:0] $end
$var reg 32 ` s_input27[31:0] $end
$var reg 32 a s_input28[31:0] $end
$var reg 32 b s_input29[31:0] $end
$var reg 32 c s_input30[31:0] $end
$var reg 32 d s_input31[31:0] $end
$var reg 32 e s_input32[31:0] $end
$var reg 32 f s_input33[31:0] $end
$var reg 32 g s_input34[31:0] $end
$var reg 6 h s_read_address1[5:0] $end
$var reg 6 i s_read_address2[5:0] $end
$var reg 6 j s_read_address3[5:0] $end
$var reg 6 k s_read_address4[5:0] $end
$var reg 6 l s_read_address5[5:0] $end
$var reg 6 m s_read_address6[5:0] $end
$var reg 6 n s_read_address7[5:0] $end
$var reg 6 o s_read_address8[5:0] $end
$var reg 6 p s_read_address9[5:0] $end
$var reg 6 q s_read_address10[5:0] $end
$var reg 6 r s_read_address11[5:0] $end
$var reg 6 s s_read_address12[5:0] $end
$var reg 6 t s_read_address13[5:0] $end
$var reg 6 u s_read_address14[5:0] $end
$var reg 6 v s_read_address15[5:0] $end
$var reg 6 w s_read_address16[5:0] $end
$var reg 6 x s_read_address17[5:0] $end
$var reg 6 y s_read_address18[5:0] $end
$var reg 6 z s_read_address19[5:0] $end
$var reg 6 { s_read_address20[5:0] $end
$var reg 6 | s_read_address21[5:0] $end
$var reg 6 } s_read_address22[5:0] $end
$var reg 6 !" s_read_address23[5:0] $end
$var reg 6 "" s_read_address24[5:0] $end
$var reg 6 #" s_read_address25[5:0] $end
$var reg 6 $" s_read_address26[5:0] $end
$var reg 6 %" s_read_address27[5:0] $end
$var reg 6 &" s_read_address28[5:0] $end
$var reg 6 '" s_read_address29[5:0] $end
$var reg 6 (" s_read_address30[5:0] $end
$var reg 32 )" s_output1[31:0] $end
$var reg 32 *" s_output2[31:0] $end
$var reg 32 +" s_output3[31:0] $end
$var reg 32 ," s_output4[31:0] $end
$var reg 32 -" s_output5[31:0] $end
$var reg 32 ." s_output6[31:0] $end
$var reg 32 /" s_output7[31:0] $end
$var reg 32 0" s_output8[31:0] $end
$var reg 32 1" s_output9[31:0] $end
$var reg 32 2" s_output10[31:0] $end
$var reg 32 3" s_output11[31:0] $end
$var reg 32 4" s_output12[31:0] $end
$var reg 32 5" s_output13[31:0] $end
$var reg 32 6" s_output14[31:0] $end
$var reg 32 7" s_output15[31:0] $end
$var reg 32 8" s_output16[31:0] $end
$var reg 32 9" s_output17[31:0] $end
$var reg 32 :" s_output18[31:0] $end
$var reg 32 ;" s_output19[31:0] $end
$var reg 32 <" s_output20[31:0] $end
$var reg 32 =" s_output21[31:0] $end
$var reg 32 >" s_output22[31:0] $end
$var reg 32 ?" s_output23[31:0] $end
$var reg 32 @" s_output24[31:0] $end
$var reg 32 A" s_output25[31:0] $end
$var reg 32 B" s_output26[31:0] $end
$var reg 32 C" s_output27[31:0] $end
$var reg 32 D" s_output28[31:0] $end
$var reg 32 E" s_output29[31:0] $end
$var reg 32 F" s_output30[31:0] $end
$scope module rf_0 $end
$var reg 1 G" clk $end
$var reg 1 H" enable_read $end
$var reg 1 I" enable_write $end
$var reg 6 J" write_address1[5:0] $end
$var reg 6 K" write_address2[5:0] $end
$var reg 6 L" write_address3[5:0] $end
$var reg 6 M" write_address4[5:0] $end
$var reg 6 N" write_address5[5:0] $end
$var reg 6 O" write_address6[5:0] $end
$var reg 6 P" write_address7[5:0] $end
$var reg 6 Q" write_address8[5:0] $end
$var reg 6 R" write_address9[5:0] $end
$var reg 6 S" write_address10[5:0] $end
$var reg 6 T" write_address11[5:0] $end
$var reg 6 U" write_address12[5:0] $end
$var reg 6 V" write_address13[5:0] $end
$var reg 6 W" write_address14[5:0] $end
$var reg 6 X" write_address15[5:0] $end
$var reg 6 Y" write_address16[5:0] $end
$var reg 6 Z" write_address17[5:0] $end
$var reg 6 [" write_address18[5:0] $end
$var reg 6 \" write_address19[5:0] $end
$var reg 6 ]" write_address20[5:0] $end
$var reg 6 ^" write_address21[5:0] $end
$var reg 6 _" write_address22[5:0] $end
$var reg 6 `" write_address23[5:0] $end
$var reg 6 a" write_address24[5:0] $end
$var reg 6 b" write_address25[5:0] $end
$var reg 6 c" write_address26[5:0] $end
$var reg 6 d" write_address27[5:0] $end
$var reg 6 e" write_address28[5:0] $end
$var reg 6 f" write_address29[5:0] $end
$var reg 6 g" write_address30[5:0] $end
$var reg 6 h" write_address31[5:0] $end
$var reg 6 i" write_address32[5:0] $end
$var reg 6 j" write_address33[5:0] $end
$var reg 6 k" write_address34[5:0] $end
$var reg 32 l" input1[31:0] $end
$var reg 32 m" input2[31:0] $end
$var reg 32 n" input3[31:0] $end
$var reg 32 o" input4[31:0] $end
$var reg 32 p" input5[31:0] $end
$var reg 32 q" input6[31:0] $end
$var reg 32 r" input7[31:0] $end
$var reg 32 s" input8[31:0] $end
$var reg 32 t" input9[31:0] $end
$var reg 32 u" input10[31:0] $end
$var reg 32 v" input11[31:0] $end
$var reg 32 w" input12[31:0] $end
$var reg 32 x" input13[31:0] $end
$var reg 32 y" input14[31:0] $end
$var reg 32 z" input15[31:0] $end
$var reg 32 {" input16[31:0] $end
$var reg 32 |" input17[31:0] $end
$var reg 32 }" input18[31:0] $end
$var reg 32 !# input19[31:0] $end
$var reg 32 "# input20[31:0] $end
$var reg 32 ## input21[31:0] $end
$var reg 32 $# input22[31:0] $end
$var reg 32 %# input23[31:0] $end
$var reg 32 &# input24[31:0] $end
$var reg 32 '# input25[31:0] $end
$var reg 32 (# input26[31:0] $end
$var reg 32 )# input27[31:0] $end
$var reg 32 *# input28[31:0] $end
$var reg 32 +# input29[31:0] $end
$var reg 32 ,# input30[31:0] $end
$var reg 32 -# input31[31:0] $end
$var reg 32 .# input32[31:0] $end
$var reg 32 /# input33[31:0] $end
$var reg 32 0# input34[31:0] $end
$var reg 6 1# read_address1[5:0] $end
$var reg 6 2# read_address2[5:0] $end
$var reg 6 3# read_address3[5:0] $end
$var reg 6 4# read_address4[5:0] $end
$var reg 6 5# read_address5[5:0] $end
$var reg 6 6# read_address6[5:0] $end
$var reg 6 7# read_address7[5:0] $end
$var reg 6 8# read_address8[5:0] $end
$var reg 6 9# read_address9[5:0] $end
$var reg 6 :# read_address10[5:0] $end
$var reg 6 ;# read_address11[5:0] $end
$var reg 6 <# read_address12[5:0] $end
$var reg 6 =# read_address13[5:0] $end
$var reg 6 ># read_address14[5:0] $end
$var reg 6 ?# read_address15[5:0] $end
$var reg 6 @# read_address16[5:0] $end
$var reg 6 A# read_address17[5:0] $end
$var reg 6 B# read_address18[5:0] $end
$var reg 6 C# read_address19[5:0] $end
$var reg 6 D# read_address20[5:0] $end
$var reg 6 E# read_address21[5:0] $end
$var reg 6 F# read_address22[5:0] $end
$var reg 6 G# read_address23[5:0] $end
$var reg 6 H# read_address24[5:0] $end
$var reg 6 I# read_address25[5:0] $end
$var reg 6 J# read_address26[5:0] $end
$var reg 6 K# read_address27[5:0] $end
$var reg 6 L# read_address28[5:0] $end
$var reg 6 M# read_address29[5:0] $end
$var reg 6 N# read_address30[5:0] $end
$var reg 32 O# output1[31:0] $end
$var reg 32 P# output2[31:0] $end
$var reg 32 Q# output3[31:0] $end
$var reg 32 R# output4[31:0] $end
$var reg 32 S# output5[31:0] $end
$var reg 32 T# output6[31:0] $end
$var reg 32 U# output7[31:0] $end
$var reg 32 V# output8[31:0] $end
$var reg 32 W# output9[31:0] $end
$var reg 32 X# output10[31:0] $end
$var reg 32 Y# output11[31:0] $end
$var reg 32 Z# output12[31:0] $end
$var reg 32 [# output13[31:0] $end
$var reg 32 \# output14[31:0] $end
$var reg 32 ]# output15[31:0] $end
$var reg 32 ^# output16[31:0] $end
$var reg 32 _# output17[31:0] $end
$var reg 32 `# output18[31:0] $end
$var reg 32 a# output19[31:0] $end
$var reg 32 b# output20[31:0] $end
$var reg 32 c# output21[31:0] $end
$var reg 32 d# output22[31:0] $end
$var reg 32 e# output23[31:0] $end
$var reg 32 f# output24[31:0] $end
$var reg 32 g# output25[31:0] $end
$var reg 32 h# output26[31:0] $end
$var reg 32 i# output27[31:0] $end
$var reg 32 j# output28[31:0] $end
$var reg 32 k# output29[31:0] $end
$var reg 32 l# output30[31:0] $end
$comment reg_file is not handled $end
$upscope $end
$enddefinitions $end
#0
1!
1"
0#
b011111 $
b011110 %
b000000 &
b000000 '
b000000 (
b000000 )
b000000 *
b000000 +
b000000 ,
b000000 -
b000000 .
b000000 /
b000000 0
b000000 1
b000000 2
b000000 3
b000000 4
b000000 5
b000000 6
b000000 7
b000000 8
b000000 9
b000000 :
b000000 ;
b000000 <
b000000 =
b000000 >
b000000 ?
b000000 @
b000000 A
b000000 B
b000000 C
b000000 D
b000000 E
b00000000000000000000000000000001 F
b00000000000000000000000000000010 G
b00000000000000000000000000000000 H
b00000000000000000000000000000000 I
b00000000000000000000000000000000 J
b00000000000000000000000000000000 K
b00000000000000000000000000000000 L
b00000000000000000000000000000000 M
b00000000000000000000000000000000 N
b00000000000000000000000000000000 O
b00000000000000000000000000000000 P
b00000000000000000000000000000000 Q
b00000000000000000000000000000000 R
b00000000000000000000000000000000 S
b00000000000000000000000000000000 T
b00000000000000000000000000000000 U
b00000000000000000000000000000000 V
b00000000000000000000000000000000 W
b00000000000000000000000000000000 X
b00000000000000000000000000000000 Y
b00000000000000000000000000000000 Z
b00000000000000000000000000000000 [
b00000000000000000000000000000000 \
b00000000000000000000000000000000 ]
b00000000000000000000000000000000 ^
b00000000000000000000000000000000 _
b00000000000000000000000000000000 `
b00000000000000000000000000000000 a
b00000000000000000000000000000000 b
b00000000000000000000000000000000 c
b00000000000000000000000000000000 d
b00000000000000000000000000000000 e
b00000000000000000000000000000000 f
b00000000000000000000000000000000 g
b000000 h
b000000 i
b000000 j
b000000 k
b000000 l
b000000 m
b000000 n
b000000 o
b000000 p
b000000 q
b000000 r
b000000 s
b000000 t
b000000 u
b000000 v
b000000 w
b000000 x
b000000 y
b000000 z
b000000 {
b000000 |
b000000 }
b000000 !"
b000000 ""
b000000 #"
b000000 $"
b000000 %"
b000000 &"
b000000 '"
b000000 ("
bUUUUUUUUUUUUUUUUUUUUUUUUUUUUUUUU )"
bUUUUUUUUUUUUUUUUUUUUUUUUUUUUUUUU *"
bUUUUUUUUUUUUUUUUUUUUUUUUUUUUUUUU +"
bUUUUUUUUUUUUUUUUUUUUUUUUUUUUUUUU ,"
bUUUUUUUUUUUUUUUUUUUUUUUUUUUUUUUU -"
bUUUUUUUUUUUUUUUUUUUUUUUUUUUUUUUU ."
bUUUUUUUUUUUUUUUUUUUUUUUUUUUUUUUU /"
bUUUUUUUUUUUUUUUUUUUUUUUUUUUUUUUU 0"
bUUUUUUUUUUUUUUUUUUUUUUUUUUUUUUUU 1"
bUUUUUUUUUUUUUUUUUUUUUUUUUUUUUUUU 2"
bUUUUUUUUUUUUUUUUUUUUUUUUUUUUUUUU 3"
bUUUUUUUUUUUUUUUUUUUUUUUUUUUUUUUU 4"
bUUUUUUUUUUUUUUUUUUUUUUUUUUUUUUUU 5"
bUUUUUUUUUUUUUUUUUUUUUUUUUUUUUUUU 6"
bUUUUUUUUUUUUUUUUUUUUUUUUUUUUUUUU 7"
bUUUUUUUUUUUUUUUUUUUUUUUUUUUUUUUU 8"
bUUUUUUUUUUUUUUUUUUUUUUUUUUUUUUUU 9"
bUUUUUUUUUUUUUUUUUUUUUUUUUUUUUUUU :"
bUUUUUUUUUUUUUUUUUUUUUUUUUUUUUUUU ;"
bUUUUUUUUUUUUUUUUUUUUUUUUUUUUUUUU <"
bUUUUUUUUUUUUUUUUUUUUUUUUUUUUUUUU ="
bUUUUUUUUUUUUUUUUUUUUUUUUUUUUUUUU >"
bUUUUUUUUUUUUUUUUUUUUUUUUUUUUUUUU ?"
bUUUUUUUUUUUUUUUUUUUUUUUUUUUUUUUU @"
bUUUUUUUUUUUUUUUUUUUUUUUUUUUUUUUU A"
bUUUUUUUUUUUUUUUUUUUUUUUUUUUUUUUU B"
bUUUUUUUUUUUUUUUUUUUUUUUUUUUUUUUU C"
bUUUUUUUUUUUUUUUUUUUUUUUUUUUUUUUU D"
bUUUUUUUUUUUUUUUUUUUUUUUUUUUUUUUU E"
bUUUUUUUUUUUUUUUUUUUUUUUUUUUUUUUU F"
1G"
1H"
0I"
b011111 J"
b011110 K"
b000000 L"
b000000 M"
b000000 N"
b000000 O"
b000000 P"
b000000 Q"
b000000 R"
b000000 S"
b000000 T"
b000000 U"
b000000 V"
b000000 W"
b000000 X"
b000000 Y"
b000000 Z"
b000000 ["
b000000 \"
b000000 ]"
b000000 ^"
b000000 _"
b000000 `"
b000000 a"
b000000 b"
b000000 c"
b000000 d"
b000000 e"
b000000 f"
b000000 g"
b000000 h"
b000000 i"
b000000 j"
b000000 k"
b00000000000000000000000000000001 l"
b00000000000000000000000000000010 m"
b00000000000000000000000000000000 n"
b00000000000000000000000000000000 o"
b00000000000000000000000000000000 p"
b00000000000000000000000000000000 q"
b00000000000000000000000000000000 r"
b00000000000000000000000000000000 s"
b00000000000000000000000000000000 t"
b00000000000000000000000000000000 u"
b00000000000000000000000000000000 v"
b00000000000000000000000000000000 w"
b00000000000000000000000000000000 x"
b00000000000000000000000000000000 y"
b00000000000000000000000000000000 z"
b00000000000000000000000000000000 {"
b00000000000000000000000000000000 |"
b00000000000000000000000000000000 }"
b00000000000000000000000000000000 !#
b00000000000000000000000000000000 "#
b00000000000000000000000000000000 ##
b00000000000000000000000000000000 $#
b00000000000000000000000000000000 %#
b00000000000000000000000000000000 &#
b00000000000000000000000000000000 '#
b00000000000000000000000000000000 (#
b00000000000000000000000000000000 )#
b00000000000000000000000000000000 *#
b00000000000000000000000000000000 +#
b00000000000000000000000000000000 ,#
b00000000000000000000000000000000 -#
b00000000000000000000000000000000 .#
b00000000000000000000000000000000 /#
b00000000000000000000000000000000 0#
b000000 1#
b000000 2#
b000000 3#
b000000 4#
b000000 5#
b000000 6#
b000000 7#
b000000 8#
b000000 9#
b000000 :#
b000000 ;#
b000000 <#
b000000 =#
b000000 >#
b000000 ?#
b000000 @#
b000000 A#
b000000 B#
b000000 C#
b000000 D#
b000000 E#
b000000 F#
b000000 G#
b000000 H#
b000000 I#
b000000 J#
b000000 K#
b000000 L#
b000000 M#
b000000 N#
bUUUUUUUUUUUUUUUUUUUUUUUUUUUUUUUU O#
bUUUUUUUUUUUUUUUUUUUUUUUUUUUUUUUU P#
bUUUUUUUUUUUUUUUUUUUUUUUUUUUUUUUU Q#
bUUUUUUUUUUUUUUUUUUUUUUUUUUUUUUUU R#
bUUUUUUUUUUUUUUUUUUUUUUUUUUUUUUUU S#
bUUUUUUUUUUUUUUUUUUUUUUUUUUUUUUUU T#
bUUUUUUUUUUUUUUUUUUUUUUUUUUUUUUUU U#
bUUUUUUUUUUUUUUUUUUUUUUUUUUUUUUUU V#
bUUUUUUUUUUUUUUUUUUUUUUUUUUUUUUUU W#
bUUUUUUUUUUUUUUUUUUUUUUUUUUUUUUUU X#
bUUUUUUUUUUUUUUUUUUUUUUUUUUUUUUUU Y#
bUUUUUUUUUUUUUUUUUUUUUUUUUUUUUUUU Z#
bUUUUUUUUUUUUUUUUUUUUUUUUUUUUUUUU [#
bUUUUUUUUUUUUUUUUUUUUUUUUUUUUUUUU \#
bUUUUUUUUUUUUUUUUUUUUUUUUUUUUUUUU ]#
bUUUUUUUUUUUUUUUUUUUUUUUUUUUUUUUU ^#
bUUUUUUUUUUUUUUUUUUUUUUUUUUUUUUUU _#
bUUUUUUUUUUUUUUUUUUUUUUUUUUUUUUUU `#
bUUUUUUUUUUUUUUUUUUUUUUUUUUUUUUUU a#
bUUUUUUUUUUUUUUUUUUUUUUUUUUUUUUUU b#
bUUUUUUUUUUUUUUUUUUUUUUUUUUUUUUUU c#
bUUUUUUUUUUUUUUUUUUUUUUUUUUUUUUUU d#
bUUUUUUUUUUUUUUUUUUUUUUUUUUUUUUUU e#
bUUUUUUUUUUUUUUUUUUUUUUUUUUUUUUUU f#
bUUUUUUUUUUUUUUUUUUUUUUUUUUUUUUUU g#
bUUUUUUUUUUUUUUUUUUUUUUUUUUUUUUUU h#
bUUUUUUUUUUUUUUUUUUUUUUUUUUUUUUUU i#
bUUUUUUUUUUUUUUUUUUUUUUUUUUUUUUUU j#
bUUUUUUUUUUUUUUUUUUUUUUUUUUUUUUUU k#
bUUUUUUUUUUUUUUUUUUUUUUUUUUUUUUUU l#
#5000000
0!
0G"
#10000000
1!
1G"
#15000000
0!
0G"
#20000000
1!
1G"
#25000000
0!
0G"
#30000000
1!
1G"
#35000000
0!
0G"
#40000000
1!
1G"
#45000000
0!
0G"
#50000000
1!
0"
1#
b00000000000000000000000000000000 )"
b00000000000000000000000000000000 *"
b00000000000000000000000000000000 +"
b00000000000000000000000000000000 ,"
b00000000000000000000000000000000 -"
b00000000000000000000000000000000 ."
b00000000000000000000000000000000 /"
b00000000000000000000000000000000 0"
b00000000000000000000000000000000 1"
b00000000000000000000000000000000 2"
b00000000000000000000000000000000 3"
b00000000000000000000000000000000 4"
b00000000000000000000000000000000 5"
b00000000000000000000000000000000 6"
b00000000000000000000000000000000 7"
b00000000000000000000000000000000 8"
b00000000000000000000000000000000 9"
b00000000000000000000000000000000 :"
b00000000000000000000000000000000 ;"
b00000000000000000000000000000000 <"
b00000000000000000000000000000000 ="
b00000000000000000000000000000000 >"
b00000000000000000000000000000000 ?"
b00000000000000000000000000000000 @"
b00000000000000000000000000000000 A"
b00000000000000000000000000000000 B"
b00000000000000000000000000000000 C"
b00000000000000000000000000000000 D"
b00000000000000000000000000000000 E"
b00000000000000000000000000000000 F"
1G"
0H"
1I"
b00000000000000000000000000000000 O#
b00000000000000000000000000000000 P#
b00000000000000000000000000000000 Q#
b00000000000000000000000000000000 R#
b00000000000000000000000000000000 S#
b00000000000000000000000000000000 T#
b00000000000000000000000000000000 U#
b00000000000000000000000000000000 V#
b00000000000000000000000000000000 W#
b00000000000000000000000000000000 X#
b00000000000000000000000000000000 Y#
b00000000000000000000000000000000 Z#
b00000000000000000000000000000000 [#
b00000000000000000000000000000000 \#
b00000000000000000000000000000000 ]#
b00000000000000000000000000000000 ^#
b00000000000000000000000000000000 _#
b00000000000000000000000000000000 `#
b00000000000000000000000000000000 a#
b00000000000000000000000000000000 b#
b00000000000000000000000000000000 c#
b00000000000000000000000000000000 d#
b00000000000000000000000000000000 e#
b00000000000000000000000000000000 f#
b00000000000000000000000000000000 g#
b00000000000000000000000000000000 h#
b00000000000000000000000000000000 i#
b00000000000000000000000000000000 j#
b00000000000000000000000000000000 k#
b00000000000000000000000000000000 l#
#55000000
0!
0G"
#60000000
1!
1G"
#65000000
0!
0G"
#70000000
1!
1G"
#75000000
0!
0G"
#80000000
1!
1G"
#85000000
0!
0G"
#90000000
1!
1G"
#95000000
0!
0G"
#100000000
1!
b011101 $
b011100 %
b00000000000000000000000000000011 F
b00000000000000000000000000000100 G
1G"
b011101 J"
b011100 K"
b00000000000000000000000000000011 l"
b00000000000000000000000000000100 m"
#105000000
0!
0G"
#110000000
1!
1G"
#115000000
0!
0G"
#120000000
1!
1G"
#125000000
0!
0G"
#130000000
1!
1G"
#135000000
0!
0G"
#140000000
1!
1G"
#145000000
0!
0G"
#150000000
1!
b011011 $
b011010 %
b00000000000000000000000000000101 F
b00000000000000000000000000000110 G
1G"
b011011 J"
b011010 K"
b00000000000000000000000000000101 l"
b00000000000000000000000000000110 m"
#155000000
0!
0G"
#160000000
1!
1G"
#165000000
0!
0G"
#170000000
1!
1G"
#175000000
0!
0G"
#180000000
1!
1G"
#185000000
0!
0G"
#190000000
1!
1G"
#195000000
0!
0G"
#200000000
1!
b011001 $
b011000 %
b00000000000000000000000000000111 F
b00000000000000000000000000001000 G
1G"
b011001 J"
b011000 K"
b00000000000000000000000000000111 l"
b00000000000000000000000000001000 m"
#205000000
0!
0G"
#210000000
1!
1G"
#215000000
0!
0G"
#220000000
1!
1G"
#225000000
0!
0G"
#230000000
1!
1G"
#235000000
0!
0G"
#240000000
1!
1G"
#245000000
0!
0G"
#250000000
1!
b010111 $
b010110 %
b00000000000000000000000000001001 F
b00000000000000000000000000001010 G
1G"
b010111 J"
b010110 K"
b00000000000000000000000000001001 l"
b00000000000000000000000000001010 m"
#255000000
0!
0G"
#260000000
1!
1G"
#265000000
0!
0G"
#270000000
1!
1G"
#275000000
0!
0G"
#280000000
1!
1G"
#285000000
0!
0G"
#290000000
1!
1G"
#295000000
0!
0G"
#300000000
1!
1"
0#
b011111 h
b00000000000000000000000000000001 )"
1G"
1H"
0I"
b011111 1#
b00000000000000000000000000000001 O#
#305000000
0!
0G"
#310000000
1!
1G"
#315000000
0!
0G"
#320000000
1!
1G"
#325000000
0!
0G"
#330000000
1!
1G"
#335000000
0!
0G"
#340000000
1!
1G"
#345000000
0!
0G"
#350000000
1!
b011101 h
b011100 i
b00000000000000000000000000000011 )"
b00000000000000000000000000000100 *"
1G"
b011101 1#
b011100 2#
b00000000000000000000000000000011 O#
b00000000000000000000000000000100 P#
#355000000
0!
0G"
#360000000
1!
1G"
#365000000
0!
0G"
#370000000
1!
1G"
#375000000
0!
0G"
#380000000
1!
1G"
#385000000
0!
0G"
#390000000
1!
1G"
#395000000
0!
0G"
#400000000
1!
b011011 h
b011010 i
b00000000000000000000000000000101 )"
b00000000000000000000000000000110 *"
1G"
b011011 1#
b011010 2#
b00000000000000000000000000000101 O#
b00000000000000000000000000000110 P#
#405000000
0!
0G"
#410000000
1!
1G"
#415000000
0!
0G"
#420000000
1!
1G"
#425000000
0!
0G"
#430000000
1!
1G"
#435000000
0!
0G"
#440000000
1!
1G"
#445000000
0!
0G"
#450000000
1!
b011001 h
b011000 i
b00000000000000000000000000000111 )"
b00000000000000000000000000001000 *"
1G"
b011001 1#
b011000 2#
b00000000000000000000000000000111 O#
b00000000000000000000000000001000 P#
#455000000
0!
0G"
#460000000
1!
1G"
#465000000
0!
0G"
#470000000
1!
1G"
#475000000
0!
0G"
#480000000
1!
1G"
#485000000
0!
0G"
#490000000
1!
1G"
#495000000
0!
0G"
#500000000
1!
b010111 h
b010110 i
b00000000000000000000000000001001 )"
b00000000000000000000000000001010 *"
1G"
b010111 1#
b010110 2#
b00000000000000000000000000001001 O#
b00000000000000000000000000001010 P#
#505000000
0!
0G"
#510000000
1!
1G"
#515000000
0!
0G"
#520000000
1!
1G"
#525000000
0!
0G"
#530000000
1!
1G"
#535000000
0!
0G"
#540000000
1!
1G"
#545000000
0!
0G"
#550000000
1!
1G"
#555000000
0!
0G"
#560000000
1!
1#
b00000000000000000000000000000000 )"
b00000000000000000000000000000000 *"
1G"
1I"
b00000000000000000000000000000000 O#
b00000000000000000000000000000000 P#
#565000000
0!
0G"
#570000000
1!
1G"
#575000000
0!
0G"
#580000000
1!
1G"
#585000000
0!
0G"
#590000000
1!
1G"
#595000000
0!
0G"
#600000000
1!
b011111 $
b011110 %
b00000000000000000000000100000000 F
b00000000000000000000001000000010 G
b011111 h
b011110 i
1G"
b011111 J"
b011110 K"
b00000000000000000000000100000000 l"
b00000000000000000000001000000010 m"
b011111 1#
b011110 2#
#605000000
0!
0G"
#610000000
1!
1G"
#615000000
0!
0G"
#620000000
1!
1G"
#625000000
0!
0G"
#630000000
1!
1G"
#635000000
0!
0G"
#640000000
1!
1G"
#645000000
0!
0G"
#650000000
1!
1G"
#655000000
0!
0G"
#660000000
1!
1G"
#665000000
0!
0G"
#670000000
1!
1G"
#675000000
0!
0G"
#680000000
1!
1G"
#685000000
0!
0G"
#690000000
1!
1G"
#695000000
0!
0G"
#700000000
1!
1G"
#705000000
0!
0G"
#710000000
1!
1G"
#715000000
0!
0G"
#720000000
1!
1G"
#725000000
0!
0G"
#730000000
1!
1G"
#735000000
0!
0G"
#740000000
1!
1G"
#745000000
0!
0G"
#750000000
1!
1G"
#755000000
0!
0G"
#760000000
1!
0"
0#
1G"
0H"
0I"
