waves/register_file1.vcd
$date
  Thu Apr 21 14:03:20 2016
$end
$version
  GHDL v0
$end
$timescale
  1 fs
$end
$var reg 1 ! s_clk $end
$var reg 1 " s_enable_read $end
$var reg 1 # s_enable_write $end
$var reg 6 $ s_write_address1[5:0] $end
$var reg 6 % s_write_address2[5:0] $end
$var reg 32 & s_input1[31:0] $end
$var reg 32 ' s_input2[31:0] $end
$var reg 6 ( s_read_address1[5:0] $end
$var reg 6 ) s_read_address2[5:0] $end
$var reg 32 * s_output1[31:0] $end
$var reg 32 + s_output2[31:0] $end
$scope module rf_0 $end
$var reg 1 , clk $end
$var reg 1 - enable_read $end
$var reg 1 . enable_write $end
$var reg 6 / write_address1[5:0] $end
$var reg 6 0 write_address2[5:0] $end
$var reg 32 1 input1[31:0] $end
$var reg 32 2 input2[31:0] $end
$var reg 6 3 read_address1[5:0] $end
$var reg 6 4 read_address2[5:0] $end
$var reg 32 5 output1[31:0] $end
$var reg 32 6 output2[31:0] $end
$comment reg_file is not handled $end
$upscope $end
$enddefinitions $end
#0
1!
1"
0#
b011111 $
b011110 %
b00000000000000000000000000000001 &
b00000000000000000000000000000010 '
b000000 (
b000000 )
b00000000000000000000000000000000 *
b00000000000000000000000000000000 +
1,
1-
0.
b011111 /
b011110 0
b00000000000000000000000000000001 1
b00000000000000000000000000000010 2
b000000 3
b000000 4
b00000000000000000000000000000000 5
b00000000000000000000000000000000 6
#5000000
0!
0,
#10000000
1!
1,
#15000000
0!
0,
#20000000
1!
1,
#25000000
0!
0,
#30000000
1!
1,
#35000000
0!
0,
#40000000
1!
1,
#45000000
0!
0,
#50000000
1!
0"
1#
1,
0-
1.
#55000000
0!
0,
#60000000
1!
1,
#65000000
0!
0,
#70000000
1!
1,
#75000000
0!
0,
#80000000
1!
1,
#85000000
0!
0,
#90000000
1!
1,
#95000000
0!
0,
#100000000
1!
b011101 $
b011100 %
b00000000000000000000000000000011 &
b00000000000000000000000000000100 '
1,
b011101 /
b011100 0
b00000000000000000000000000000011 1
b00000000000000000000000000000100 2
#105000000
0!
0,
#110000000
1!
1,
#115000000
0!
0,
#120000000
1!
1,
#125000000
0!
0,
#130000000
1!
1,
#135000000
0!
0,
#140000000
1!
1,
#145000000
0!
0,
#150000000
1!
b011011 $
b011010 %
b00000000000000000000000000000101 &
b00000000000000000000000000000110 '
1,
b011011 /
b011010 0
b00000000000000000000000000000101 1
b00000000000000000000000000000110 2
#155000000
0!
0,
#160000000
1!
1,
#165000000
0!
0,
#170000000
1!
1,
#175000000
0!
0,
#180000000
1!
1,
#185000000
0!
0,
#190000000
1!
1,
#195000000
0!
0,
#200000000
1!
b011001 $
b011000 %
b00000000000000000000000000000111 &
b00000000000000000000000000001000 '
1,
b011001 /
b011000 0
b00000000000000000000000000000111 1
b00000000000000000000000000001000 2
#205000000
0!
0,
#210000000
1!
1,
#215000000
0!
0,
#220000000
1!
1,
#225000000
0!
0,
#230000000
1!
1,
#235000000
0!
0,
#240000000
1!
1,
#245000000
0!
0,
#250000000
1!
b010111 $
b010110 %
b00000000000000000000000000001001 &
b00000000000000000000000000001010 '
1,
b010111 /
b010110 0
b00000000000000000000000000001001 1
b00000000000000000000000000001010 2
#255000000
0!
0,
#260000000
1!
1,
#265000000
0!
0,
#270000000
1!
1,
#275000000
0!
0,
#280000000
1!
1,
#285000000
0!
0,
#290000000
1!
1,
#295000000
0!
0,
#300000000
1!
1"
0#
b011111 (
b00000000000000000000000000000001 *
1,
1-
0.
b011111 3
b00000000000000000000000000000001 5
#305000000
0!
0,
#310000000
1!
1,
#315000000
0!
0,
#320000000
1!
1,
#325000000
0!
0,
#330000000
1!
1,
#335000000
0!
0,
#340000000
1!
1,
#345000000
0!
0,
#350000000
1!
b011101 (
b011100 )
b00000000000000000000000000000011 *
b00000000000000000000000000000100 +
1,
b011101 3
b011100 4
b00000000000000000000000000000011 5
b00000000000000000000000000000100 6
#355000000
0!
0,
#360000000
1!
1,
#365000000
0!
0,
#370000000
1!
1,
#375000000
0!
0,
#380000000
1!
1,
#385000000
0!
0,
#390000000
1!
1,
#395000000
0!
0,
#400000000
1!
b011011 (
b011010 )
b00000000000000000000000000000101 *
b00000000000000000000000000000110 +
1,
b011011 3
b011010 4
b00000000000000000000000000000101 5
b00000000000000000000000000000110 6
#405000000
0!
0,
#410000000
1!
1,
#415000000
0!
0,
#420000000
1!
1,
#425000000
0!
0,
#430000000
1!
1,
#435000000
0!
0,
#440000000
1!
1,
#445000000
0!
0,
#450000000
1!
b011001 (
b011000 )
b00000000000000000000000000000111 *
b00000000000000000000000000001000 +
1,
b011001 3
b011000 4
b00000000000000000000000000000111 5
b00000000000000000000000000001000 6
#455000000
0!
0,
#460000000
1!
1,
#465000000
0!
0,
#470000000
1!
1,
#475000000
0!
0,
#480000000
1!
1,
#485000000
0!
0,
#490000000
1!
1,
#495000000
0!
0,
#500000000
1!
b010111 (
b010110 )
b00000000000000000000000000001001 *
b00000000000000000000000000001010 +
1,
b010111 3
b010110 4
b00000000000000000000000000001001 5
b00000000000000000000000000001010 6
#505000000
0!
0,
#510000000
1!
1,
#515000000
0!
0,
#520000000
1!
1,
#525000000
0!
0,
#530000000
1!
1,
#535000000
0!
0,
#540000000
1!
1,
#545000000
0!
0,
#550000000
1!
1,
#555000000
0!
0,
#560000000
1!
1#
1,
1.
#565000000
0!
0,
#570000000
1!
1,
#575000000
0!
0,
#580000000
1!
1,
#585000000
0!
0,
#590000000
1!
1,
#595000000
0!
0,
#600000000
1!
b011111 $
b00000000000000000000000100000000 &
b011111 (
b011110 )
b00000000000000000000000100000000 *
b00000000000000000000000000000010 +
1,
b011111 /
b00000000000000000000000100000000 1
b011111 3
b011110 4
b00000000000000000000000100000000 5
b00000000000000000000000000000010 6
#605000000
0!
0,
#610000000
1!
1,
#615000000
0!
0,
#620000000
1!
1,
#625000000
0!
0,
#630000000
1!
1,
#635000000
0!
0,
#640000000
1!
1,
#645000000
0!
0,
#650000000
1!
1,
#655000000
0!
0,
#660000000
1!
1,
#665000000
0!
0,
#670000000
1!
1,
#675000000
0!
0,
#680000000
1!
1,
#685000000
0!
0,
#690000000
1!
1,
#695000000
0!
0,
#700000000
1!
1,
#705000000
0!
0,
#710000000
1!
1,
#715000000
0!
0,
#720000000
1!
1,
#725000000
0!
0,
#730000000
1!
1,
#735000000
0!
0,
#740000000
1!
1,
#745000000
0!
0,
#750000000
1!
1,
#755000000
0!
0,
#760000000
1!
0"
0#
1,
0-
0.
